{
  "project_info": {
    "project_number": "942789766484",
    "firebase_url": "https://ura-commerce.firebaseio.com",
    "project_id": "ura-commerce",
    "storage_bucket": "ura-commerce.appspot.com"
  },
  "client": [
    {
      "client_info": {
        "mobilesdk_app_id": "1:942789766484:android:25bbb5d512f535496becc1",
        "android_client_info": {
          "package_name": "br.com.thebugs.ura_commerce_hacka"
        }
      },
      "oauth_client": [
        {
          "client_id": "942789766484-5km81349smv8spc9ev4eh86l0i38f8c6.apps.googleusercontent.com",
          "client_type": 3
        }
      ],
      "api_key": [
        {
          "current_key": "AIzaSyAeKFjt_lHO5sEMHCMVIKQfgUu2lXz6mLY"
        }
      ],
      "services": {
        "appinvite_service": {
          "other_platform_oauth_client": [
            {
              "client_id": "942789766484-5km81349smv8spc9ev4eh86l0i38f8c6.apps.googleusercontent.com",
              "client_type": 3
            }
          ]
        }
      }
    }
  ],
  "configuration_version": "1"
}